Drinking Vessels, Skeletal Remains, and Hair Pins Analysis
…
sites_summary <- cups_skulls_clean %>%
  count(site, region, name = "n_graves") %>%
  arrange(desc(n_graves))

cat("Number of sites:", n_distinct(cups_skulls_clean$site), "\n")

Number of sites: 50 

cat("Sites represented:\n\n")

Sites represented:

print(sites_summary, n = 30)

# A tibble: 50 × 3
   site                                      region   n_graves
   <chr>                                     <chr>       <int>
 1 Agios Stephanos                           laconia        63
 2 volimidhia                                messenia       35
 3 Xerokambi: Agios Vasileios North Cemetery laconia        25
 4 Ayos Ioannis Papoulia                     messenia       23
 5 Koukounara Gouvalari                      messenia       14
 6 Epidavros Limera:PAL1                     laconia        10
 7 Peristeria & kokorakou                    messenia        9
 8 Voidhokoloa                               messenia        9
 9 Nihoria                                   messenia        8
10 Handhrinou Kissos                         messenia        7
11 Kaminia                                   messenia        7
12 Pellana                                   laconia         7
13 Englianos                                 messenia        6
14 Skoura: malathria                         laconia         6
15 Pellana: pelekete and Palaiokastro        laconia         5
16 Peristeri: Solakos                        laconia         5
17 Routsi                                    messenia        4
18 Sparti: Polydendron                       laconia         4
19 Sykea                                     laconia         4
20 Amyklai: Spelakia                         laconia         3
21 Amyklaion                                 laconia         3
22 Arkynes                                   laconia         3
23 Geraki: Acropolis                         laconia         3
24 Daphi: Louria                             laconia         2
25 Daphni: Louria 3                          laconia         2
26 Koukounara Livadhiti to Fities            messenia        2
27 Koukounara akones                         messenia        2
28 Psari Metsiki                             messenia        2
29 Tragana                                   messenia        2
30 Agios Georgios Voion                      laconia         1
# ℹ 20 more rows
…
