Data Exploration: Laconia Burial Data
…
Sites in the Dataset

# Count graves per site
site_counts <- burial_data %>%
  filter(!is.na(site)) %>%
  count(site, name = "n_graves") %>%
  arrange(desc(n_graves))

print(site_counts, n = 20)

# A tibble: 23 × 2
   site                                      n_graves
   <chr>                                        <int>
 1 Agios Stephanos                                 63
 2 Xerokambi: Agios Vasileios North Cemetery       25
 3 Epidavros Limera:PAL1                           10
 4 Pellana                                          7
 5 Skoura: malathria                                6
 6 Pellana: pelekete and Palaiokastro               5
 7 Peristeri: Solakos                               5
 8 Sparti: Polydendron                              4
 9 Sykea                                            4
10 Amyklai: Spelakia                                3
11 Amyklaion                                        3
12 Arkynes                                          3
13 Geraki: Acropolis                                3
14 Daphi: Louria                                    2
15 Daphni: Louria 3                                 2
16 Agios Georgios Voion                             1
17 Agios Vasileios:North Cemetery                   1
18 Angelona: Bastiza                                1
19 Epidavros Limera                                 1
20 Kambos Voion                                     1
# ℹ 3 more rows
…
